#!/bin/bash
# format:
# multiple versions can be specified in DIST_VERSION,
# separated by $SEPARATOR.
#
# '##' followed by a variable name in the JOB_EXTENDED_DESCRIPTION
# or BUILD_DIR variables will be substituted by that variable
# at generation time.
#

# for parsing variables below
SEPARATOR=,

# job config file variables
#ASSIGNED_NODE=!master
BLOCKING_JOBS=administrative/block_all_jobs

DIST=lineage-go
DIST_LONG=LineageOS
DIST_VERSION=16.0
JOB_DIR=${DIST_LONG}_GO_Builds/Samsung_Galaxy_J5
JOB_EXTENDED_DESCRIPTION="${DIST_LONG} GO ##DIST_VERSION for the ##DEVICE_MODEL"
JOB_PREFIX=los-go
BUILD_DIR=lineage-##{DIST_VERSION}
BUILD_TYPE=userdebug
BUILD_TARGET=otapackage

# format: DEVICE_CODENAME:DEVICE_MODEL:DESCRIPTION
# Use '_' to denote a space.
DEVICES=j5lte:SM-J500F/G/M/Y:Unified_Builds,
DEVICES+=j53gxx:SM-J500H,
DEVICES+=j5ltechn:SM-J5008,
DEVICES+=j5nlte:SM-J500FN,
DEVICES+=j5xnlte:SM-J510FN

LOCAL_CHANGES="905,986"
LOCAL_TOPICS="android-go-p,sepolicy-p,blobs-p,8916-audio-p"
LINEAGE_CHANGES="223442,225974,227453,227454,223067,222733,222760,222742,225475,225476,229423,229424,228566,228569,228570,228572,228573,228574,228575,228576,228578,228580,228582,228583,228584,228585,228586,228587,227260,227261,223413,224446,224513,226587,226588,226600,226236,224844,225754,225582,227108,226615,227821,228405,229230,224443,225546,226647,226648,226649,226650,226651,226652,226653,226654,226656,226658,226683,226685,226687,226688,226689,226692,226694,226696,226697,226699,226700,226701,226702,226705,226708,226709,226710,226711,226712,226713,226714,226715,226716,226717,226718,226719,226721,226722,226723,226724,226725,226726,226727,226729,226731,226732,226734,226735,226736,226737,226738,226740,226741,226742,226743,223685,226744,226745,223678,223684,223687,223692,225543,226075,226076,226077,225628,225629,225630,225631,225632,225633,225634,225635,226080,230047,225581,224752,225265,226131,226863,226142,226148,226150,226151,225755,225756,226154,227120,228403,228404,224264,223085,229304,224198,225921,230762,231201"
LINEAGE_TOPICS="8916-display-p,pie-kernel-headers"

# extra commands to pass to build script
SHELL_COMMANDS_EXTRA=" --sync-all --pick $LOCAL_CHANGES --pick-topic $LOCAL_TOPICS  --pick-lineage $LINEAGE_CHANGES --pick-lineage-topic $LINEAGE_TOPICS"
